<svg xmlns="http://www.w3.org/2000/svg" width="60" height="50" version="1.1">
  <defs>
    <marker id="arrowhead" markerWidth="6" markerHeight="4" refX="0" refY="2" orient="auto">
      <circle cx="2" cy="2" r="2" stroke="green" stroke-width="0" fill="black"/>
        <line x1="0" y1="2" x2="2" y2="2" stroke="black" stroke-width="1"/>
    </marker>
  </defs>
  <line x1="0" y1="25" x2="40" y2="25" stroke="black" stroke-width="4" marker-end="url(#arrowhead)"/>
</svg>